<?xml version="1.0" standalone="no"?>
<!DOCTYPE svg PUBLIC "-//W3C//DTD SVG 1.1//EN" "http://www.w3.org/Graphics/SVG/1.1/DTD/svg11.dtd" >
<svg xmlns="http://www.w3.org/2000/svg">
<metadata>
This is a custom SVG font generated by IcoMoon.
<iconset grid="16"></iconset>
</metadata>
<defs>
<font id="icomoon" horiz-adv-x="512" >
<font-face units-per-em="512" ascent="480" descent="-32" />
<missing-glyph horiz-adv-x="512" />
<glyph unicode="&#x2a;" d="M 325.608,214.818L 512.00,86.264L 512.00,382.211 	zM0.00,382.211L0.00,86.264L 186.388,214.836 	zM 256.00,152.309L 211.499,192.264L0.00,64.00L 512.00,64.00L 300.495,192.264 	zM 496.64,384.00L 15.36,384.00L 256.00,203.074 	z"  />
<glyph unicode="&#x2b;" d="M 256.00,480.00C 114.615,480.00,0.00,365.385,0.00,224.00s 114.615-256.00, 256.00-256.00s 256.00,114.615, 256.00,256.00S 397.385,480.00, 256.00,480.00z M 128.00,352.00l 256.00,0.00 
	c 4.569,0.00, 9.002-0.981, 13.072-2.831L 256.00,184.585L 114.928,349.17C 118.998,351.018, 123.431,352.00, 128.00,352.00z M 96.00,128.00L 96.00,320.00 
	c0.00,0.67, 0.028,1.336, 0.07,2.00l 93.832-109.471L 97.103,119.73C 96.381,122.398, 96.00,125.173, 96.00,128.00z M 384.00,96.00L 128.00,96.00 
	c-2.827,0.00-5.601,0.381-8.27,1.104l 91.059,91.059L 256.00,135.414l 45.212,52.747l 91.058-91.06C 389.60,96.381, 386.827,96.00, 384.00,96.00z
	 M 416.00,128.00c0.00-2.827-0.381-5.60-1.103-8.27l-92.80,92.799L 415.93,322.00c 0.042-0.664, 0.07-1.33, 0.07-2.00L 416.00,128.00 z"  />
<glyph unicode="&#x35;" d="M 426.655,480.00L 85.345,480.00 C 38.405,480.00,0.00,441.608,0.00,394.671l0.00-341.328 C0.00,6.405, 38.405-32.00, 85.345-32.00l 341.311,0.00 
	C 473.625-32.00, 512.00,6.405, 512.00,53.343L 512.00,394.671 C 512.00,441.608, 473.625,480.00, 426.655,480.00z M 128.00,352.00l 256.00,0.00 c 4.569,0.00, 9.002-0.981, 13.072-2.831
	L 256.00,184.585L 114.928,349.17C 118.998,351.018, 123.431,352.00, 128.00,352.00z M 96.00,128.00L 96.00,320.00 c0.00,0.67, 0.028,1.336, 0.07,2.00l 93.832-109.47
	L 97.103,119.73C 96.381,122.399, 96.00,125.173, 96.00,128.00z M 384.00,96.00L 128.00,96.00 c-2.827,0.00-5.601,0.381-8.27,1.103l 91.059,91.059L 256.00,135.414
	l 45.212,52.747l 91.058-91.059C 389.60,96.381, 386.827,96.00, 384.00,96.00z M 416.00,128.00c0.00-2.827-0.381-5.60-1.103-8.27l-92.799,92.799L 415.93,322.00
	c 0.042-0.664, 0.07-1.33, 0.07-2.00L 416.00,128.00 z"  />
<glyph unicode="&#x32;" d="M 279.533,448.00c0.00,0.00-100.478,0.00-133.97,0.00C 85.503,448.00, 28.978,402.497, 28.978,349.789c0.00-53.863, 40.941-97.333, 102.044-97.333
		c 4.249,0.00, 8.378,0.085, 12.421,0.376c-3.965-7.593-6.801-16.144-6.801-25.021c0.00-14.969, 8.052-27.105, 18.234-37.012
		c-7.693,0.00-15.121-0.224-23.226-0.224C 57.259,190.576,0.00,143.196,0.00,94.065c0.00-48.389, 62.771-78.657, 137.167-78.657
		c 84.812,0.00, 131.653,48.122, 131.653,96.514c0.00,38.80-11.448,62.036-46.843,87.067c-12.108,8.572-35.265,29.418-35.265,41.672
		c0.00,14.36, 4.098,21.434, 25.714,38.323c 22.156,17.312, 37.836,41.651, 37.836,69.958c0.00,33.703-15.01,66.549-43.186,77.386l 42.477,0.00 
		L 279.533,448.00z M 232.74,120.271c 1.063-4.486, 1.642-9.103, 1.642-13.814c0.00-39.10-25.196-69.655-97.487-69.655
		c-51.421,0.00-88.558,32.552-88.558,71.65c0.00,38.321, 46.063,70.222, 97.482,69.666c 12.00-0.127, 23.184-2.058, 33.335-5.345
		C 207.067,153.36, 227.092,142.392, 232.74,120.271z M 150.409,266.112c-34.519,1.032-67.318,38.613-73.276,83.93
		c-5.958,45.333, 17.185,80.021, 51.694,78.995c 34.505-1.037, 67.319-37.407, 73.279-82.729
		C 208.059,300.978, 184.911,265.079, 150.409,266.112zM 416.00,352.00L 416.00,448.00L 384.00,448.00L 384.00,352.00L 288.00,352.00L 288.00,320.00L 384.00,320.00L 384.00,224.00L 416.00,224.00L 416.00,320.00L 512.00,320.00L 512.00,352.00 	z"  />
<glyph unicode="&#x34;" d="M 209.304,145.838c-2.208,1.536-4.496,3.129-6.858,4.798c-6.883,2.123-14.152,3.238-21.632,3.318
		c-0.315,0.003-0.62,0.005-0.93,0.005c-34.69,0.00-65.121-21.302-65.121-45.585c0.00-26.444, 25.998-47.159, 59.187-47.159
		c 24.12,0.00, 41.903,4.632, 52.854,13.766c 8.954,7.469, 13.307,17.872, 13.307,31.804c0.00,2.858-0.338,5.776-1.004,8.675
		C 236.274,126.641, 226.928,133.574, 209.304,145.838zM 256.00,480.00C 114.615,480.00,0.00,365.385,0.00,224.00s 114.615-256.00, 256.00-256.00s 256.00,114.615, 256.00,256.00S 397.385,480.00, 256.00,480.00z M 256.812,50.464
		c-20.807-17.217-49.387-26.317-82.65-26.317c-30.692,0.00-59.188,6.449-80.238,18.16C 70.113,55.553, 57.00,74.94, 57.00,96.898
		c0.00,22.268, 12.208,44.534, 33.493,61.089c 21.139,16.442, 48.776,25.613, 77.959,25.898c-3.125,6.363-4.70,12.951-4.70,19.712
		c0.00,3.209, 0.352,6.468, 1.051,9.76c-23.559,1.026-44.831,10.012-60.295,25.562c-16.037,16.127-24.869,38.143-24.869,61.991
		c0.00,22.806, 11.474,45.612, 31.479,62.572c 19.325,16.383, 44.694,25.779, 69.603,25.779l 142.047,0.00 l-33.512-37.29l-32.309,0.00 
		c 9.861-13.337, 15.57-31.501, 15.57-51.737c0.00-23.887-11.835-46.484-33.324-63.629c-16.244-12.96-16.324-16.044-16.325-22.657
		c 0.613-4.122, 11.704-16.779, 23.409-25.239c 29.697-21.444, 40.74-42.468, 40.74-77.566
		C 287.018,88.464, 276.008,66.347, 256.812,50.464z M 384.00,288.00l0.00-64.00 l-32.00,0.00 l0.00,64.00 l-64.00,0.00 l0.00,32.00 l 64.00,0.00 L 352.00,384.00 l 32.00,0.00 l0.00-64.00 l 64.00,0.00 l0.00-32.00 L 384.00,288.00 zM 204.776,253.153c 8.643,9.826, 12.456,26.164, 10.20,43.705c-3.979,30.90-25.348,56.596-47.637,57.28
		c-0.285,0.008-0.57,0.013-0.856,0.013c-7.519,0.00-14.24-3.124-19.438-9.033c-8.519-9.686-12.116-25.26-9.867-42.729
		c 3.979-30.903, 25.792-57.573, 47.635-58.24C 192.491,243.909, 199.394,247.033, 204.776,253.153z"  />
<glyph unicode="&#x33;" d="M 0.403,45.168c-0.122,1.266-0.226,2.535-0.292,3.815C 0.176,47.703, 0.281,46.434, 0.403,45.168zM 117.954,197.426c 46.005-1.369, 76.867,46.349, 68.931,106.599c-7.947,60.24-51.698,108.584-97.704,109.961
		c-46.013,1.365-76.87-44.741-68.926-105.00C 28.196,248.752, 71.931,198.799, 117.954,197.426zM 512.00,352.00L 512.00,394.655 C 512.00,441.595, 473.609,480.00, 426.671,480.00L 85.343,480.00 C 39.205,480.00, 1.337,442.884, 0.061,397.037
		c 29.181,25.693, 69.662,47.158, 111.437,47.158c 44.652,0.00, 178.622,0.00, 178.622,0.00l-39.974-33.809l-56.634,0.00 
		c 37.565-14.402, 57.578-58.062, 57.578-102.861c0.00-37.624-20.905-69.977-50.444-92.984c-28.822-22.451-34.286-31.854-34.286-50.939
		c0.00-16.289, 30.873-44.00, 47.016-55.394c 47.191-33.269, 62.458-64.156, 62.458-115.728c0.00-8.214-1.021-16.415-3.033-24.48l 153.871,0.00 
		C 473.609-32.00, 512.00,6.375, 512.00,53.345L 512.00,319.999 l-96.00,0.00 L 416.00,224.00 l-32.00,0.00 l0.00,96.00 l-95.999,0.00 l0.00,32.00 L 384.00,352.00 L 384.00,448.00 l 32.00,0.00 l0.00-96.00 L 512.00,352.00 zM 92.943,97.032c 10.807,0.00, 20.711,0.295, 30.968,0.295c-13.573,13.167-24.313,29.30-24.313,49.19
		c0.00,11.804, 3.782,23.168, 9.067,33.26c-5.391-0.385-10.895-0.497-16.563-0.497c-37.178,0.00-68.753,12.038-92.102,31.927l0.00-33.621 
		l 0.003-100.865C 26.723,89.408, 58.447,97.032, 92.943,97.032zM 1.71,36.371c-0.556,2.729-0.983,5.503-1.271,8.317C 0.726,41.874, 1.154,39.10, 1.71,36.371zM 227.725,3.577c-7.529,29.403-34.227,43.982-71.444,69.784c-13.536,4.366-28.447,6.937-44.447,7.104
		c-44.809,0.482-86.554-17.471-110.108-44.186C 9.686-2.574, 44.243-32.00, 85.343-32.00l 143.222,0.00 c 0.908,5.564, 1.348,11.316, 1.348,17.216
		C 229.913-8.517, 229.146-2.388, 227.725,3.577z"  />
<glyph unicode="&#x26;" d="M 287.935-32.00L 192.00-32.00 L 192.00,224.00 l-64.00,0.00 l0.00,88.225 l 64.00,0.029l-0.104,51.976C 191.896,436.206, 211.413,480.00, 296.195,480.00l 70.588,0.00 l0.00-88.242 l-44.115,0.00 
	c-33.016,0.00-34.603-12.328-34.603-35.342l-0.131-44.162l 79.345,0.00 l-9.352-88.225L 288.00,224.00L 287.935-32.00z"  />
<glyph unicode="&#x28;" d="M 256.00,480.00C 114.615,480.00,0.00,365.385,0.00,224.00c0.00-119.285, 81.585-219.516, 192.00-247.935L 192.00,192.00 l-46.263,0.00 l0.00,73.282 L 192.00,265.282 l0.00,47.593 
	C 192.00,377.546, 219.896,416.00, 295.935,416.00l 87.622,0.00 l0.00-79.285 l-71.565,0.00 c-21.241,0.035-23.876-11.076-23.876-31.756L 288.00,265.282l 96.00,0.00 L 371.296,192.00
	L 288.00,192.00 l0.00-222.013 C 414.281-14.265, 512.00,93.453, 512.00,224.00C 512.00,365.385, 397.385,480.00, 256.00,480.00z"  />
<glyph unicode="&#x27;" d="M 426.672,480.00L 85.342,480.00 C 38.406,480.00,0.00,441.593,0.00,394.656l0.00-341.313 C0.00,6.374, 38.406-32.00, 85.342-32.00l 341.33,0.001
	c 46.938,0.00, 85.328,38.373, 85.328,85.344L 512.00,394.656 C 512.00,441.593, 473.609,480.00, 426.672,480.00z M 435.296,224.00L 352.00,224.00 l0.00-224.00 l-96.00,0.00 L 256.00,224.00 l-46.263,0.00 l0.00,73.282 L 256.00,297.282 
	l0.00,47.593 C 256.00,409.546, 283.896,448.00, 359.935,448.00l 87.622,0.00 l0.00-79.285 l-71.565,0.00 c-21.241,0.035-23.876-11.076-23.876-31.756L 352.00,297.282l 96.00,0.00 
	L 435.296,224.00z"  />
<glyph unicode="&#x23;" d="M 512.00,382.791c-18.838-8.354-39.082-14.001-60.33-16.54c 21.686,13.00, 38.343,33.585, 46.186,58.115
	c-20.298-12.039-42.778-20.78-66.705-25.49c-19.16,20.415-46.461,33.17-76.673,33.17c-58.011,0.00-105.044-47.029-105.044-105.039
	c0.00-8.233, 0.929-16.25, 2.72-23.939c-87.30,4.382-164.701,46.20-216.509,109.753c-9.042-15.514-14.223-33.558-14.223-52.809
	c0.00-36.444, 18.544-68.596, 46.73-87.433c-17.219,0.546-33.416,5.271-47.577,13.139c-0.01-0.438-0.01-0.878-0.01-1.321
	c0.00-50.894, 36.209-93.348, 84.261-103.00c-8.813-2.40-18.094-3.686-27.674-3.686c-6.769,0.00-13.349,0.66-19.764,1.886
	c 13.368-41.73, 52.16-72.103, 98.126-72.948c-35.95-28.175-81.243-44.967-130.458-44.967c-8.479,0.00-16.84,0.497-25.058,1.47
	c 46.486-29.805, 101.701-47.197, 161.021-47.197c 193.211,0.00, 298.868,160.062, 298.868,298.872c0.00,4.554-0.103,9.084-0.305,13.59
	C 480.11,343.227, 497.918,361.727, 512.00,382.791z"  />
<glyph unicode="&#x25;" d="M 256.00,480.00C 114.615,480.00,0.00,365.385,0.00,224.00s 114.615-256.00, 256.00-256.00s 256.00,114.615, 256.00,256.00S 397.385,480.00, 256.00,480.00z M 403.121,299.456
	c 0.146-3.254, 0.221-6.528, 0.221-9.819c0.00-100.311-76.354-215.982-215.979-215.982c-42.868,0.00-82.768,12.568-116.363,34.107
	c 5.938-0.704, 11.981-1.063, 18.108-1.063c 35.565,0.00, 68.295,12.138, 94.275,32.497c-33.217,0.61-61.25,22.561-70.912,52.716
	c 4.637-0.884, 9.392-1.361, 14.283-1.361c 6.923,0.00, 13.629,0.928, 19.999,2.662c-34.726,6.976-60.893,37.656-60.893,74.434
	c0.00,0.32,0.00,0.639, 0.008,0.955c 10.235-5.685, 21.939-9.10, 34.382-9.494c-20.37,13.611-33.77,36.846-33.77,63.184
	c0.00,13.911, 3.744,26.952, 10.278,38.162c 37.439-45.927, 93.374-76.146, 156.462-79.314c-1.294,5.559-1.965,11.351-1.965,17.302
	c0.00,41.92, 33.99,75.906, 75.909,75.906c 21.833,0.00, 41.562-9.218, 55.409-23.97c 17.29,3.404, 33.537,9.721, 48.206,18.42
	c-5.668-17.727-17.705-32.603-33.376-41.997c 15.355,1.834, 29.984,5.916, 43.597,11.952
	C 430.825,323.529, 417.955,310.16, 403.121,299.456z"  />
<glyph unicode="&#x24;" d="M 426.671,480.00L 85.343,480.00 C 38.406,480.00,0.00,441.595,0.00,394.655l0.00-341.311 C0.00,6.375, 38.406-32.00, 85.343-32.00l 341.328,0.00 
	C 473.609-32.00, 512.00,6.375, 512.00,53.345L 512.00,394.655 C 512.00,441.595, 473.609,480.00, 426.671,480.00z M 419.026,309.083
	c 0.164-3.671, 0.245-7.364, 0.245-11.074c0.00-113.107-84.608-243.534-239.329-243.534c-47.502,0.00-91.717,14.174-128.943,38.459
	c 6.58-0.794, 13.276-1.197, 20.065-1.197c 39.411,0.00, 75.679,13.685, 104.467,36.641c-36.808,0.69-67.872,25.438-78.577,59.441
	c 5.137-1.00, 10.406-1.537, 15.826-1.537c 7.672,0.00, 15.103,1.048, 22.16,3.004c-38.48,7.866-67.475,42.458-67.475,83.928
	c0.00,0.361,0.00,0.719, 0.008,1.076c 11.34-6.41, 24.312-10.26, 38.10-10.705c-22.571,15.349-37.421,41.546-37.421,71.244
	c0.00,15.685, 4.147,30.389, 11.389,43.029c 41.487-51.785, 103.468-85.86, 173.377-89.431c-1.435,6.266-2.179,12.798-2.179,19.507
	c0.00,47.269, 37.663,85.59, 84.115,85.59c 24.195,0.00, 46.059-10.393, 61.401-27.029c 19.16,3.838, 37.162,10.96, 53.416,20.771
	c-6.281-19.988-19.617-36.761-36.983-47.355c 17.013,2.069, 33.226,6.67, 48.31,13.477C 449.725,336.226, 435.463,321.15, 419.026,309.083
	z"  />
<glyph unicode="&#x2c;" d="M 68.147,104.535c-37.598,0.00-68.146-30.667-68.146-68.038c0.00-37.577, 30.55-67.901, 68.146-67.901
		c 37.733,0.00, 68.247,30.324, 68.247,67.901C 136.393,73.868, 105.882,104.535, 68.147,104.535zM 0.078,306.035l0.00-98.129 c 63.892,0.00, 123.979-24.986, 169.229-70.256c 45.192-45.159, 70.141-105.518, 70.141-169.65l 98.561,0.00 
		C 338.008,154.41, 186.368,306.035, 0.078,306.035zM 0.194,480.00l0.00-98.178 c 227.891,0.00, 413.378-185.667, 413.378-413.822L 512.00-32.00 C 512.00,250.235, 282.373,480.00, 0.194,480.00z"  />
<glyph unicode="&#x2e;" d="M 256.00,480.00C 114.615,480.00,0.00,365.385,0.00,224.00s 114.615-256.00, 256.00-256.00s 256.00,114.615, 256.00,256.00S 397.385,480.00, 256.00,480.00z M 139.589,78.896
	c-23.297,0.00-42.229,17.821-42.229,39.907c0.00,21.963, 18.931,39.985, 42.229,39.985c 23.384,0.00, 42.292-18.022, 42.292-39.985
	C 181.881,96.718, 162.971,78.896, 139.589,78.896z M 245.742,78.548c0.00,37.689-15.461,73.166-43.466,99.704
	c-28.04,26.605-65.275,41.289-104.868,41.289l0.00,57.672 c 115.441,0.00, 209.41-89.111, 209.411-198.665L 245.742,78.548 z M 353.645,78.548
	c0.00,134.088-114.945,243.204-256.164,243.204l0.00,57.70 c 174.862,0.00, 317.159-135.034, 317.159-300.904L 353.645,78.548 z"  />
<glyph unicode="&#x2d;" d="M 426.67,480.00L 85.343,480.00 C 38.405,480.00,0.00,441.594,0.00,394.656l0.00-341.314 C0.00,6.375, 38.406-32.00, 85.344-32.00L 426.67-32.00 
	c 46.938,0.00, 85.33,38.374, 85.33,85.342L 512.00,394.656 C 512.00,441.594, 473.608,480.00, 426.67,480.00z M 139.472,64.376C 115.487,64.376, 96.00,83.722, 96.00,107.69
	c0.00,23.842, 19.486,43.406, 43.472,43.406c 24.079,0.00, 43.53-19.564, 43.53-43.406C 183.001,83.722, 163.55,64.376, 139.472,64.376z
	 M 248.734,64.002c0.00,40.905-15.904,79.409-44.73,108.222c-28.857,28.875-67.188,44.813-107.952,44.813L 96.052,279.63 
	c 118.826,0.00, 215.563-96.721, 215.563-215.627L 248.734,64.002L 248.734,64.002z M 359.814,64.002
	c0.00,145.531-118.329,263.97-263.688,263.97L 96.126,390.596 c 180.001,0.00, 326.473-146.562, 326.473-326.596L 359.814,64.002L 359.814,64.002z"  />
<glyph unicode="&#x30;" d="M0.00,325.815l 20.797-27.272c0.00,0.00, 42.885,33.804, 57.18,16.901c 14.294-16.901, 68.868-220.978, 87.085-258.623
	c 15.90-33.015, 59.759-76.66, 107.857-45.491c 48.068,31.17, 207.92,167.643, 236.533,328.808
	c 28.59,161.113-192.36,127.363-215.765-13.005c 58.495,35.118, 89.718-14.269, 59.785-70.186
	c-29.879-55.862-57.18-92.296-71.476-92.296c-14.269,0.00-25.245,37.384-41.594,102.723c-16.899,67.551-16.796,189.23-87.058,175.435
	C 87.085,429.803,0.00,325.815,0.00,325.815z"  />
<glyph unicode="&#x31;" d="M 252.48,476.768c-141.36,0.00-256.00-114.624-256.00-256.00s 114.64-256.00, 256.00-256.00c 141.376,0.00, 256.00,114.624, 256.00,256.00S 393.856,476.768, 252.48,476.768 M 391.376,278.96
	c-1.36-28.656-21.312-67.84-60.112-117.60c-40.032-51.984-74.016-77.984-101.728-77.984c-17.12,0.00-31.712,15.904-43.568,47.584
	c-7.936,29.072-15.904,58.144-23.776,87.248c-8.832,31.648-18.304,47.488-28.464,47.488c-2.128,0.00-9.872-4.56-23.12-13.84l-13.84,17.824
	c 14.56,12.80, 28.848,25.584, 43.008,38.336c 19.344,16.736, 33.872,25.568, 43.552,26.416c 22.88,2.192, 36.976-13.424, 42.304-46.896
	c 5.68-36.112, 9.632-58.592, 11.856-67.36c 6.624-29.968, 13.872-44.976, 21.856-44.976c 6.144,0.00, 15.344,9.68, 27.728,29.088
	c 12.32,19.376, 18.944,34.128, 19.792,44.256c 1.76,16.752-4.864,25.12-19.792,25.12c-7.056,0.00-14.352-1.568-21.808-4.64
	c 14.48,47.12, 42.208,70.016, 83.216,68.704C 378.832,336.88, 393.168,317.28, 391.376,278.96"  />
<glyph unicode="&#x21;" d="M 426.655,480.00L 85.345,480.00 C 38.406,480.00,0.00,441.592,0.00,394.654l0.00-341.31 C0.00,6.375, 38.406-32.00, 85.345-32.00l 341.31,0.00 
	C 473.594-32.00, 512.00,6.375, 512.00,53.345L 512.00,394.654 C 512.00,441.592, 473.594,480.00, 426.655,480.00z M 406.434,292.937
	c-16.979-95.648-111.854-176.648-140.39-195.155c-28.544-18.503-54.577,7.411-64.019,26.997
	c-10.808,22.354-43.205,143.47-51.684,153.51c-8.482,10.019-33.938-10.04-33.938-10.04l-12.346,16.188
	c0.00,0.00, 51.691,61.724, 91.02,69.439c 41.702,8.183, 41.64-64.033, 51.67-104.121c 9.70-38.782, 16.22-60.976, 24.688-60.976
	c 8.486,0.00, 24.692,21.631, 42.426,54.786c 17.768,33.188-0.768,62.505-35.486,41.646C 292.267,368.536, 423.406,388.57, 406.434,292.937z"  />
<glyph unicode="&#x22;" d="M0.00,224.00A112.00,112.00 8100.00 1 1 224.00,224A112.00,112.00 8100.00 1 1 0.00,224zM 288.00,224.00A112.00,112.00 8100.00 1 1 512.00,224A112.00,112.00 8100.00 1 1 288.00,224z"  />
<glyph unicode="&#x29;" d="M 256.00,480.00C 114.615,480.00,0.00,365.385,0.00,224.00s 114.615-256.00, 256.00-256.00s 256.00,114.615, 256.00,256.00S 397.385,480.00, 256.00,480.00z M 148.00,140.00
	c-46.392,0.00-84.00,37.608-84.00,84.00c0.00,46.392, 37.608,84.00, 84.00,84.00c 46.393,0.00, 84.00-37.608, 84.00-84.00C 232.00,177.608, 194.393,140.00, 148.00,140.00z M 364.00,140.00
	c-46.393,0.00-84.00,37.608-84.00,84.00c0.00,46.392, 37.607,84.00, 84.00,84.00s 84.00-37.608, 84.00-84.00C 448.00,177.608, 410.393,140.00, 364.00,140.00z"  />
<glyph unicode="&#x2f;" d="M 426.687,480.00L 85.344,480.00 C 38.406,480.00,0.00,441.594,0.00,394.659l0.00-341.313 C0.00,6.375, 38.406-32.00, 85.344-32.00l 341.342,0.00 
	C 473.622-32.00, 512.00,6.377, 512.00,53.348L 512.00,394.659 C 512.00,441.594, 473.622,480.00, 426.687,480.00z M 160.00,144.00c-44.183,0.00-80.00,35.816-80.00,80.00
	c0.00,44.183, 35.817,80.00, 80.00,80.00s 80.00-35.817, 80.00-80.00C 240.00,179.816, 204.183,144.00, 160.00,144.00z M 352.00,144.00c-44.182,0.00-80.00,35.816-80.00,80.00
	c0.00,44.183, 35.818,80.00, 80.00,80.00c 44.184,0.00, 80.00-35.817, 80.00-80.00C 432.00,179.816, 396.184,144.00, 352.00,144.00z"  />
<glyph unicode="&#x36;" d="M 64.00,224.004c0.00-74.013, 44.161-137.984, 108.215-168.289L 80.626,300.107C 69.972,276.853, 64.00,251.116, 64.00,224.004zM 385.614,233.436c0.00,23.117-8.527,39.118-15.827,51.571c-9.729,15.41-18.86,28.447-18.86,43.858
			c0.00,17.187, 13.383,33.188, 32.243,33.188c 0.852,0.00, 1.66-0.102, 2.488-0.151C 351.50,392.387, 305.988,411.00, 256.004,411.00
			c-67.08,0.00-126.093-33.523-160.422-84.284c 4.505-0.141, 8.753-0.227, 12.356-0.227c 20.077,0.00, 51.17,2.376, 51.17,2.376
			c 10.345,0.591, 11.566-14.217, 1.229-15.411c0.00,0.00-10.405-1.184-21.976-1.775l 69.917-202.553l 42.022,122.728l-29.911,79.825
			c-10.344,0.592-20.139,1.775-20.139,1.775c-10.351,0.596-9.136,16.001, 1.219,15.411c0.00,0.00, 31.70-2.376, 50.567-2.376
			c 20.073,0.00, 51.175,2.376, 51.175,2.376c 10.351,0.591, 11.57-14.217, 1.223-15.411c0.00,0.00-10.417-1.186-21.974-1.775L 351.85,110.67
			l 19.156,62.316C 379.296,198.861, 385.614,217.436, 385.614,233.436zM 259.371,207.648l-57.613-163.029c 17.208-4.929, 35.397-7.619, 54.244-7.619c 22.358,0.00, 43.802,3.759, 63.759,10.60
			c-0.509,0.801-0.987,1.652-1.375,2.577L 259.371,207.648zM 424.481,313.714c 0.826-5.955, 1.294-12.343, 1.294-19.229c0.00-18.965-3.646-40.298-14.601-66.975l-58.643-165.136
			C 409.612,94.788, 448.00,155.018, 448.00,224.003C 448.00,256.518, 439.47,287.083, 424.481,313.714zM 256.00,480.00C 114.615,480.00,0.00,365.385,0.00,224.00s 114.615-256.00, 256.00-256.00s 256.00,114.615, 256.00,256.00S 397.385,480.00, 256.00,480.00z M 256.00,0.00
		C 132.288,0.00, 32.00,100.288, 32.00,224.00S 132.288,448.00, 256.00,448.00s 224.00-100.288, 224.00-224.00S 379.712,0.00, 256.00,0.00z"  />
<glyph unicode="&#x37;" d="M 259.555,206.271l-60.828-176.742c 18.164-5.343, 37.372-8.262, 57.269-8.262c 23.608,0.00, 46.251,4.077, 67.321,11.492
		c-0.539,0.868-1.039,1.793-1.45,2.795L 259.555,206.271zM 392.852,234.232c0.00,25.062-9.006,42.405-16.718,55.905c-10.273,16.708-19.912,30.843-19.912,47.55
		c0.00,18.631, 14.13,35.979, 34.045,35.979c 0.896,0.00, 1.753-0.108, 2.624-0.165c-36.064,33.048-84.119,53.225-136.896,53.225
		c-70.82,0.00-133.129-36.34-169.376-91.371c 4.757-0.153, 9.242-0.244, 13.044-0.244c 21.197,0.00, 54.028,2.576, 54.028,2.576
		c 10.928,0.639, 12.213-15.416, 1.299-16.707c0.00,0.00-10.985-1.282-23.198-1.928l 73.816-219.589l 44.371,133.05l-31.584,86.541
		c-10.92,0.645-21.262,1.926-21.262,1.926c-10.927,0.646-9.645,17.347, 1.288,16.707c0.00,0.00, 33.47-2.576, 53.391-2.576
		c 21.199,0.00, 54.03,2.576, 54.03,2.576c 10.931,0.64, 12.218-15.414, 1.297-16.707c0.00,0.00-10.999-1.281-23.202-1.926l 73.262-217.916
		l 20.229,67.559C 386.179,196.748, 392.852,216.882, 392.852,234.232zM 357.915,48.781c 60.269,35.14, 100.803,100.438, 100.803,175.227c0.00,35.246-9.005,68.381-24.831,97.254
		c 0.871-6.455, 1.366-13.382, 1.366-20.847c0.00-20.564-3.854-43.688-15.416-72.609L 357.915,48.781zM 53.277,224.008c0.00-80.24, 46.624-149.592, 114.258-182.448L 70.83,306.51C 59.577,281.299, 53.277,253.399, 53.277,224.008zM 426.688,480.00L 85.346,480.00 C 38.406,480.00,0.00,441.594,0.00,394.659l0.00-341.313 C0.00,6.376, 38.406-32.00, 85.346-32.00l 341.342,0.00 
		C 473.622-32.00, 512.00,6.376, 512.00,53.346L 512.00,394.659 C 512.00,441.594, 473.622,480.00, 426.688,480.00z M 255.993-1.48
		c-124.327,0.00-225.476,101.156-225.476,225.488c0.00,124.324, 101.147,225.475, 225.476,225.475
		c 124.327,0.00, 225.484-101.149, 225.484-225.475C 481.48,99.676, 380.322-1.48, 255.993-1.48z"  />
<glyph unicode="&#x38;" d="M 267.536,479.536c-139.728,0.00-210.176-100.192-210.176-183.712c0.00-50.608, 19.136-95.60, 60.224-112.352c 6.736-2.752, 12.768-0.096, 14.72,7.36
	c 1.36,5.152, 4.56,18.16, 6.016,23.584c 1.952,7.36, 1.20,9.984-4.24,16.40c-11.84,13.968-19.424,32.048-19.424,57.664
	c0.00,74.336, 55.632,140.864, 144.816,140.864c 78.96,0.00, 122.368-48.256, 122.368-112.688c0.00-84.80-37.536-156.40-93.248-156.40c-30.752,0.00-53.792,25.488-46.416,56.672
	c 8.848,37.28, 25.968,77.472, 25.968,104.384c0.00,24.048-12.912,44.144-39.664,44.144c-31.456,0.00-56.704-32.56-56.704-76.144
	c0.00-27.76, 9.376-46.528, 9.376-46.528S 148.96,106.40, 143.328,82.496c-11.232-47.568-1.68-105.84-0.896-111.728
	c 0.48-3.488, 4.992-4.336, 6.992-1.68c 2.912,3.792, 40.352,50.048, 53.088,96.24c 3.616,13.072, 20.704,80.848, 20.704,80.848
	c 10.208-19.504, 40.08-36.656, 71.824-36.656c 94.56,0.00, 158.688,86.192, 158.688,201.552C 453.712,398.304, 379.84,479.536, 267.536,479.536z"  />
<glyph unicode="&#x39;" d="M 256.00,480.00C 114.615,480.00,0.00,365.385,0.00,224.00s 114.613-256.00, 256.00-256.00c 141.385,0.00, 256.00,114.615, 256.00,256.00S 397.385,480.00, 256.00,480.00z M 280.822,137.941
	c-23.26,1.807-33.021,13.328-51.252,24.404C 219.54,109.757, 207.288,59.337, 171.00,33.002
	c-11.202,79.484, 16.447,139.182, 29.285,202.557c-21.892,36.853, 2.635,111.017, 48.81,92.737
	c 56.813-22.474-49.20-137.004, 21.966-151.308c 74.31-14.934, 104.644,128.929, 58.571,175.712
	c-66.579,67.553-193.799,1.54-178.155-95.178c 3.807-23.646, 28.236-30.819, 9.762-63.451c-42.61,9.446-55.325,43.051-53.688,87.856
	c 2.634,73.337, 65.892,124.682, 129.343,131.783c 80.242,8.982, 155.553-29.454, 165.953-104.938
	C 414.553,223.577, 366.623,131.307, 280.822,137.941z"  />
<glyph unicode="&#x3a;" d="M 426.675,480.00L 85.324,480.00 C 38.199,480.00,0.00,441.79,0.00,394.657l0.00-341.315 C0.00,6.209, 38.199-32.00, 85.324-32.00l 341.351,0.00 
	C 473.80-32.00, 512.00,6.209, 512.00,53.342L 512.00,394.657 C 512.00,441.79, 473.80,480.00, 426.675,480.00z M 280.822,137.941
	c-23.26,1.807-33.021,13.328-51.252,24.404c-10.03-52.589-22.281-103.009-58.569-129.344
	c-11.202,79.484, 16.447,139.182, 29.285,202.557c-21.893,36.853, 2.635,111.017, 48.81,92.737
	c 56.813-22.474-49.20-137.004, 21.966-151.308c 74.31-14.934, 104.644,128.929, 58.571,175.712
	c-66.579,67.553-193.799,1.54-178.155-95.178c 3.807-23.646, 28.236-30.819, 9.762-63.451c-42.61,9.446-55.325,43.051-53.688,87.856
	c 2.634,73.337, 65.892,124.682, 129.343,131.783c 80.242,8.982, 155.553-29.454, 165.953-104.938
	C 414.553,223.577, 366.623,131.307, 280.822,137.941z"  />
<glyph unicode="&#x3b;" d="M 37.584,298.848L 133.712,298.848L 133.712,9.904L 37.584,9.904zM 86.304,438.096C 53.408,438.096, 32.00,416.48, 32.00,388.192c0.00-27.76, 20.864-49.984, 52.992-49.984l 0.704,0.00 c 33.536,0.00, 54.272,22.224, 54.272,49.984
		C 139.344,416.48, 119.184,438.096, 86.304,438.096zM 369.424,305.568c-51.104,0.00-73.936-28.128-86.608-47.872l0.00-0.80 L 282.24,256.896 c 0.112,0.224, 0.40,0.544, 0.576,0.80l0.00,41.12 l-95.968,0.00 
		c 1.20-27.104,0.00-288.896,0.00-288.896l 95.968,0.00 L 282.816,171.216 c0.00,8.64, 0.608,17.20, 3.216,23.456c 6.944,17.264, 22.736,35.088, 49.264,35.088
		c 34.736,0.00, 48.592-26.48, 48.592-65.28l0.00-154.576 L 480.00,9.904 l0.00,165.60 C 480.048,264.256, 432.64,305.568, 369.424,305.568z"  />
<glyph unicode="&#x3c;" d="M 275.20,263.568l0.00,0.576 c-0.128-0.176-0.336-0.40-0.416-0.576L 275.20,263.568 zM 256.00,480.00C 114.624,480.00,0.00,365.392,0.00,224.00s 114.624-256.00, 256.00-256.00s 256.00,114.624, 256.00,256.00S 397.376,480.00, 256.00,480.00z M 168.432,86.72L 99.616,86.72 L 99.616,293.60 l 68.832,0.00 L 168.448,86.72 z
		 M 134.064,321.776L 133.568,321.776 c-23.008,0.00-37.952,15.904-37.952,35.792c0.00,20.256, 15.328,35.744, 38.896,35.744c 23.536,0.00, 37.968-15.488, 38.416-35.744
		C 172.928,337.68, 158.08,321.776, 134.064,321.776z M 416.384,86.72l-68.816,0.00 l0.00,110.688 c0.00,27.76-9.936,46.736-34.80,46.736
		c-19.008,0.00-30.32-12.768-35.28-25.136c-1.872-4.48-2.304-10.608-2.304-16.784l0.00-115.504 l-68.72,0.00 c0.00,0.00, 0.864,187.44,0.00,206.848L 275.20,293.568 l0.00-29.44 
		c 9.072,14.128, 25.424,34.288, 62.016,34.288c 45.248,0.00, 79.20-29.584, 79.168-93.152L 416.384,86.72 z"  />
<glyph unicode="&#x3d;" d="M 426.656,480.00L 85.344,480.00 C 38.406,480.00,0.00,441.594,0.00,394.657l0.00-341.313 C0.00,6.376, 38.407-32.00, 85.344-32.00l 341.312,0.00 
	C 473.593-32.00, 512.00,6.376, 512.00,53.344L 512.00,394.656 C 511.997,441.594, 473.593,480.00, 426.656,480.00z M 157.395,51.365L 79.969,51.365 L 79.969,284.329 l 77.426,0.00 L 157.395,51.365 z
	 M 118.684,316.121l-0.508,0.00 c-25.983,0.00-42.788,17.898-42.788,40.266c0.00,22.846, 17.313,40.248, 43.803,40.248
	c 26.486,0.00, 42.791-17.396, 43.296-40.248C 162.487,334.027, 145.678,316.121, 118.684,316.121z M 436.611,51.365l-77.426,0.00 L 359.185,176.003 
	c0.00,31.308-11.205,52.669-39.219,52.669c-21.396,0.00-34.144-14.406-39.73-28.318c-2.041-4.979-2.548-11.924-2.548-18.883l0.00-130.104 
	l-77.443,0.00 c0.00,0.00, 1.018,211.103,0.00,232.963l 77.436,0.00 l0.00-33.00 c 10.283,15.864, 28.672,38.479, 69.785,38.479c 50.951,0.00, 89.146-33.309, 89.146-104.856
	L 436.612,51.365 L 436.611,51.365z"  />
<glyph unicode="&#x3e;" d="M 318.24,259.456c0.00-7.60, 1.536-13.248, 4.56-17.072c 3.04-3.76, 7.536-5.68, 13.60-5.68c 4.864,0.00, 9.92,1.344, 15.072,4.064
		c 5.248,2.688, 10.224,6.672, 14.992,11.808l0.00-14.048 l 26.00,0.00 L 392.464,365.92 l-26.00,0.00 l0.00-96.672 c-2.416-2.80-5.12-5.104-8.016-6.88
		c-2.928-1.776-5.392-2.672-7.296-2.672c-2.40,0.00-4.208,0.672-5.264,2.016c-1.072,1.36-1.664,3.536-1.664,6.544L 344.224,365.92 l-25.984,0.00 
		L 318.24,259.456L 318.24,259.456zM 179.104,209.344L 99.152,209.344L 99.152,186.592L 126.112,186.592L 126.112,52.672L 152.16,52.672L 152.16,186.592L 179.104,186.592 	zM 185.408,310.176L 219.52,411.168L 189.76,411.168L 171.632,342.176L 169.808,342.176L 150.768,411.168L 121.264,411.168L 156.144,306.944L 156.144,238.56L 185.408,238.56 	zM 255.264,168.256l-23.104,0.00 l0.00-87.792 c-2.192-2.496-4.576-4.608-7.20-6.192c-2.576-1.648-4.736-2.448-6.40-2.448
		c-2.176,0.00-3.744,0.608-4.768,1.872c-0.928,1.168-1.408,3.168-1.408,5.92l0.00,88.64 l-23.104,0.00 l0.00-96.64 c0.00-6.928, 1.36-12.016, 4.048-15.488
		c 2.704-3.472, 6.72-5.168, 12.064-5.168c 4.32,0.00, 8.784,1.20, 13.408,3.68c 4.64,2.464, 9.04,6.00, 13.376,10.704l0.00-12.688 l 23.12,0.00 L 255.264,168.256
		L 255.264,168.256zM 267.472,344.48c 2.096-1.728, 3.12-3.984, 3.12-6.736l0.00-69.36 c0.00-3.392-0.992-6.096-3.088-8.064
		c-2.064-1.92-4.88-2.928-8.40-2.928c-3.424,0.00-6.096,0.96-7.92,2.896c-1.824,1.888-2.784,4.624-2.784,8.096L 248.40,337.728 
		c0.00,2.768, 0.976,4.992, 2.976,6.736c 2.016,1.696, 4.56,2.544, 7.728,2.544C 262.576,347.008, 265.312,346.176, 267.472,344.48z M 259.168,235.344
		c 11.792,0.00, 21.088,3.088, 27.872,9.296c 6.704,6.224, 10.08,14.72, 10.08,25.648l0.00,65.76 c0.00,9.712-3.424,17.68-10.288,23.808
		c-6.88,6.176-15.696,9.264-26.496,9.264c-11.792,0.00-21.248-2.912-28.208-8.784c-7.024-5.856-10.56-13.664-10.56-23.536l0.00-66.032 
		c0.00-10.80, 3.472-19.408, 10.256-25.824C 238.704,238.56, 247.792,235.344, 259.168,235.344zM 419.152,107.696l0.00,29.472 c0.00,10.96-2.80,19.36-8.512,25.168c-5.664,5.888-13.776,8.80-24.40,8.80
		c-10.304,0.00-18.704-3.12-25.232-9.472c-6.56-6.304-9.84-14.496-9.84-24.496l0.00-51.92 c0.00-11.12, 3.024-19.888, 8.928-26.224
		c 5.936-6.352, 14.112-9.52, 24.416-9.52c 11.568,0.00, 20.208,2.96, 25.968,8.96c 5.792,5.968, 8.688,14.944, 8.688,26.784l0.00,5.904 l-23.76,0.00 l0.00-5.248 
		c0.00-6.768-0.784-11.168-2.304-13.12c-1.552-2.048-4.192-3.056-8.048-3.056c-3.648,0.00-6.272,1.168-7.792,3.52
		c-1.504,2.336-2.272,6.576-2.272,12.672L 374.992,107.68 L 419.152,107.696L 419.152,107.696z M 374.992,137.392c0.00,4.816, 0.736,8.336, 2.368,10.336
		c 1.632,2.128, 4.24,3.168, 7.92,3.168c 3.488,0.00, 6.096-1.04, 7.68-3.168c 1.616-2.016, 2.416-5.536, 2.416-10.336l0.00-11.664 l-20.40,0.00 L 374.976,137.392 zM 333.28,162.272c-3.872,4.96-9.44,7.408-16.784,7.408c-3.568,0.00-7.104-0.896-10.64-2.736c-3.488-1.792-6.752-4.528-9.888-8.032
		l0.00,50.432 l-23.344,0.00 l0.00-156.672 l 23.344,0.00 l0.00,8.864 c 3.008-3.536, 6.336-6.176, 9.888-7.808c 3.52-1.696, 7.536-2.544, 12.064-2.544
		c 6.832,0.00, 12.096,2.192, 15.712,6.528c 3.632,4.368, 5.424,10.672, 5.424,18.864l0.00,64.16 C 339.04,150.16, 337.104,157.344, 333.28,162.272z
		 M 315.264,79.712c0.00-3.728-0.704-6.336-2.032-7.968c-1.344-1.632-3.344-2.416-6.224-2.416c-1.968,0.00-3.792,0.384-5.616,1.216
		c-1.76,0.832-3.616,2.24-5.456,4.08l0.00,72.032 c 1.60,1.616, 3.136,2.816, 4.80,3.552c 1.584,0.736, 3.20,1.088, 4.896,1.088
		c 3.088,0.00, 5.52-0.976, 7.168-3.008c 1.648-2.016, 2.464-4.992, 2.464-8.88L 315.264,79.712L 315.264,79.712z"  />
<glyph unicode="&#x3f;" d="M 302.288,150.624c-1.68,0.00-3.344-0.352-4.944-1.12c-1.648-0.736-3.216-1.952-4.816-3.584l0.00-72.656 
		c 1.84-1.872, 3.728-3.28, 5.52-4.128c 1.792-0.832, 3.664-1.232, 5.648-1.232c 2.88,0.00, 4.912,0.832, 6.288,2.432
		c 1.312,1.648, 2.032,4.288, 2.032,8.048l0.00,60.256 c0.00,3.92-0.80,6.928-2.464,8.96C 307.84,149.648, 305.424,150.624, 302.288,150.624zM 255.328,348.048c-3.20,0.00-5.776-0.848-7.792-2.56c-2.00-1.744-3.008-4.00-3.008-6.80l0.00-69.968 c0.00-3.52, 0.96-6.272, 2.80-8.176
		c 1.856-1.952, 4.544-2.928, 8.00-2.928c 3.568,0.00, 6.384,1.008, 8.48,2.96c 2.096,1.984, 3.136,4.704, 3.136,8.144L 266.944,338.688 
		c0.00,2.80-1.056,5.04-3.184,6.80C 261.616,347.20, 258.832,348.048, 255.328,348.048zM 382.656,150.208c-3.712,0.00-6.368-1.04-8.00-3.20c-1.664-2.032-2.40-5.584-2.40-10.432l0.00-11.776 l 20.592,0.00 l0.00,11.776 
		c0.00,4.864-0.848,8.40-2.432,10.432C 388.816,149.152, 386.16,150.208, 382.656,150.208zM 255.408,479.536c-141.376,0.00-256.00-114.624-256.00-256.00c0.00-141.376, 114.624-256.00, 256.00-256.00s 256.00,114.624, 256.00,256.00C 511.408,364.912, 396.80,479.536, 255.408,479.536z
		 M 315.008,367.104l 26.224,0.00 l0.00-98.512 c0.00-3.024, 0.592-5.232, 1.68-6.592c 1.056-1.36, 2.88-2.048, 5.312-2.048c 1.904,0.00, 4.40,0.896, 7.344,2.688
		s 5.664,4.128, 8.096,6.96L 363.664,367.104 l 26.224,0.00 l0.00-128.48 l-26.224,0.00 L 363.664,252.80 c-4.816-5.184-9.84-9.20-15.12-11.92
		c-5.184-2.752-10.32-4.112-15.184-4.112c-6.128,0.00-10.656,1.936-13.744,5.728c-3.056,3.856-4.592,9.568-4.592,17.216L 315.024,367.104 z
		 M 174.656,186.224L 147.456,186.224 l0.00-135.104 L 121.184,51.12 l0.00,135.104 l-27.20,0.00 l0.00,22.944 l 80.656,0.00 L 174.64,186.224 z M 181.008,238.624L 151.472,238.624 l0.00,68.992 L 116.288,412.768l 29.76,0.00 l 19.20-69.60l 1.856,0.00 
		l 18.272,69.60l 30.032,0.00 l-34.40-101.888L 181.008,238.624 z M 251.456,51.104l-23.312,0.00 l0.00,12.80 c-4.352-4.752-8.816-8.32-13.472-10.80
		c-4.656-2.512-9.152-3.712-13.536-3.712c-5.392,0.00-9.44,1.712-12.176,5.20c-2.72,3.504-4.096,8.64-4.096,15.648l0.00,97.488 l 23.312,0.00 l0.00-89.44 
		c0.00-2.752, 0.496-4.784, 1.408-5.968c 1.04-1.28, 2.64-1.888, 4.816-1.888c 1.68,0.00, 3.872,0.816, 6.48,2.48
		c 2.64,1.60, 5.04,3.712, 7.264,6.24l0.00,88.576 l 23.312,0.00 L 251.456,51.104 z M 227.856,245.056c-6.864,6.464-10.336,15.152-10.336,26.048L 217.52,337.728 
		c0.00,9.952, 3.552,17.824, 10.64,23.744c 7.008,5.92, 16.56,8.864, 28.448,8.864c 10.896,0.00, 19.776-3.12, 26.72-9.344
		c 6.928-6.192, 10.352-14.24, 10.352-24.032l0.00-66.336 c0.00-11.008-3.376-19.60-10.16-25.872c-6.848-6.256-16.192-9.376-28.112-9.376
		C 243.952,235.392, 234.752,238.624, 227.856,245.056z M 336.00,75.20c0.00-8.256-1.808-14.608-5.472-19.008c-3.632-4.368-8.96-6.592-15.84-6.592
		c-4.592,0.00-8.656,0.848-12.192,2.56c-3.584,1.664-6.96,4.32-9.968,7.872l0.00-8.928 l-23.552,0.00 l0.00,158.048 l 23.552,0.00 l0.00-50.88 
		c 3.152,3.52, 6.464,6.272, 9.968,8.112c 3.584,1.84, 7.136,2.736, 10.752,2.736c 7.408,0.00, 13.024-2.464, 16.944-7.456
		C 334.064,156.72, 336.00,149.456, 336.00,139.92L 336.00,75.20 z M 416.848,106.608l-44.592,0.00 l0.00-21.968 c0.00-6.16, 0.752-10.416, 2.288-12.80
		c 1.568-2.352, 4.192-3.536, 7.872-3.536c 3.872,0.00, 6.56,1.024, 8.128,3.072c 1.504,1.968, 2.32,6.416, 2.32,13.248l0.00,5.296 l 24.00,0.00 l0.00-5.968 
		c0.00-11.936-2.944-20.992-8.816-27.024c-5.776-6.048-14.496-9.008-26.192-9.008c-10.40,0.00-18.624,3.184-24.624,9.60
		c-5.968,6.384-8.992,15.232-8.992,26.448l0.00,52.384 c0.00,10.08, 3.312,18.352, 9.904,24.72c 6.592,6.368, 15.088,9.552, 25.472,9.552
		c 10.72,0.00, 18.944-2.96, 24.656-8.88c 5.744-5.872, 8.592-14.336, 8.592-25.392L 416.864,106.608 z"  />
<glyph unicode="&#x40;" d="M 244.80,348.048c-3.184,0.00-5.776-0.848-7.792-2.56c-2.00-1.744-3.008-4.00-3.008-6.80l0.00-69.968 c0.00-3.52, 0.96-6.272, 2.80-8.176
		c 1.872-1.952, 4.544-2.928, 8.00-2.928c 3.568,0.00, 6.368,1.008, 8.48,2.96c 2.096,1.984, 3.136,4.704, 3.136,8.144L 256.416,338.688 
		c0.00,2.80-1.056,5.04-3.184,6.80C 251.072,347.20, 248.304,348.048, 244.80,348.048zM 372.112,150.208c-3.712,0.00-6.352-1.04-8.00-3.20c-1.648-2.032-2.40-5.584-2.40-10.432l0.00-11.776 l 20.592,0.00 l0.00,11.776 
		c0.00,4.864-0.832,8.40-2.432,10.432C 378.272,149.152, 375.632,150.208, 372.112,150.208zM 424.40,479.536L 80.384,479.536 c-46.304,0.00-83.968-37.712-83.968-84.016l0.00-344.00 c0.00-46.32, 37.664-83.984, 83.968-83.984l 344.016,0.00 
		c 46.304,0.00, 83.968,37.664, 83.968,83.984L 508.368,395.52 C 508.368,441.808, 470.704,479.536, 424.40,479.536z M 304.448,367.104l 26.224,0.00 l0.00-98.512 
		c0.00-3.024, 0.608-5.232, 1.68-6.592s 2.88-2.048, 5.312-2.048c 1.92,0.00, 4.40,0.896, 7.36,2.688c 2.928,1.792, 5.648,4.128, 8.08,6.96
		L 353.104,367.104 l 26.24,0.00 l0.00-128.48 l-26.24,0.00 L 353.104,252.80 c-4.80-5.184-9.824-9.20-15.104-11.92c-5.20-2.752-10.32-4.112-15.20-4.112
		c-6.128,0.00-10.656,1.936-13.744,5.728c-3.04,3.856-4.592,9.568-4.592,17.216L 304.464,367.104 z M 164.112,186.224L 136.928,186.224 l0.00-135.104 L 110.64,51.12 l0.00,135.104 L 83.456,186.224 
		l0.00,22.944 l 80.656,0.00 L 164.112,186.224 z M 170.464,238.624L 140.944,238.624 l0.00,68.992 L 105.744,412.768l 29.76,0.00 l 19.184-69.60l 1.872,0.00 l 18.272,69.60l 30.032,0.00 l-34.40-101.888L 170.464,238.624 z
		 M 240.928,51.104l-23.312,0.00 l0.00,12.80 c-4.352-4.752-8.816-8.32-13.472-10.80c-4.656-2.512-9.152-3.712-13.536-3.712
		c-5.408,0.00-9.44,1.712-12.192,5.20c-2.72,3.504-4.096,8.64-4.096,15.648l0.00,97.488 l 23.312,0.00 l0.00-89.44 c0.00-2.752, 0.496-4.784, 1.408-5.968
		c 1.04-1.28, 2.656-1.888, 4.832-1.888c 1.664,0.00, 3.872,0.816, 6.48,2.48c 2.624,1.60, 5.024,3.712, 7.248,6.24l0.00,88.576 l 23.312,0.00 L 240.912,51.104 z
		 M 217.312,245.056c-6.864,6.464-10.336,15.152-10.336,26.048L 206.976,337.728 c0.00,9.952, 3.552,17.824, 10.624,23.744c 7.008,5.92, 16.56,8.864, 28.448,8.864
		c 10.896,0.00, 19.76-3.12, 26.736-9.344c 6.912-6.192, 10.336-14.24, 10.336-24.032l0.00-66.336 c0.00-11.008-3.376-19.60-10.16-25.872
		c-6.832-6.256-16.192-9.376-28.096-9.376C 233.408,235.392, 224.208,238.624, 217.312,245.056z M 325.456,75.20c0.00-8.256-1.792-14.608-5.456-19.008
		c-3.648-4.368-8.96-6.592-15.856-6.592c-4.576,0.00-8.64,0.848-12.192,2.56c-3.568,1.664-6.944,4.32-9.968,7.872l0.00-8.928 l-23.552,0.00 l0.00,158.048 
		l 23.552,0.00 l0.00-50.88 c 3.152,3.52, 6.48,6.272, 9.968,8.112c 3.60,1.84, 7.152,2.736, 10.768,2.736c 7.392,0.00, 13.008-2.464, 16.928-7.456
		c 3.872-4.96, 5.808-12.224, 5.808-21.744L 325.456,75.20 z M 406.304,106.608l-44.592,0.00 l0.00-21.968 c0.00-6.16, 0.768-10.416, 2.288-12.80
		c 1.568-2.352, 4.208-3.536, 7.872-3.536c 3.888,0.00, 6.56,1.024, 8.128,3.072c 1.52,1.968, 2.32,6.416, 2.32,13.248l0.00,5.296 l 24.00,0.00 l0.00-5.968 
		c0.00-11.936-2.928-20.992-8.80-27.024c-5.792-6.048-14.512-9.008-26.192-9.008c-10.40,0.00-18.64,3.184-24.64,9.60
		c-5.952,6.384-8.992,15.232-8.992,26.448l0.00,52.384 c0.00,10.08, 3.328,18.352, 9.92,24.72c 6.592,6.368, 15.072,9.552, 25.472,9.552
		c 10.72,0.00, 18.928-2.96, 24.64-8.88c 5.744-5.872, 8.592-14.336, 8.592-25.392L 406.32,106.608 zM 291.728,150.624c-1.664,0.00-3.328-0.352-4.944-1.12c-1.632-0.736-3.216-1.952-4.816-3.584l0.00-72.656 
		c 1.856-1.872, 3.744-3.28, 5.536-4.128c 1.776-0.832, 3.664-1.232, 5.632-1.232c 2.88,0.00, 4.928,0.832, 6.288,2.432
		c 1.312,1.648, 2.032,4.288, 2.032,8.048l0.00,60.256 c0.00,3.92-0.784,6.928-2.464,8.96C 297.296,149.648, 294.896,150.624, 291.728,150.624z"  />
<glyph unicode="&#x41;" d="M 396.608-32.464L 77.152-32.464 L 77.152,286.96 l 319.456,0.00 L 396.608-32.464 z M 108.752-0.88l 256.24,0.00 L 364.992,255.36 L 108.752,255.36 L 108.752-0.88 zM 336.992,129.536L 162.00,304.528L 336.992,479.536L 512.00,304.528L 336.992,129.536z M 206.688,304.528l 130.32-130.32l 130.32,130.32
				l-130.32,130.32L 206.688,304.528z"  />
<glyph unicode="&#x42;" d="M 256.00,480.00L 96.00,224.00L 256.00-32.00L 416.00,224.00 z"  />
<glyph unicode="&#x43;" d="M 512.00,32.00L 512.00,224.00 l-128.00,0.00 c0.00,70.56, 57.376,128.00, 128.00,128.00L 512.00,416.00 c-105.872,0.00-192.00-86.128-192.00-192.00l0.00-192.00 L 512.00,32.00 zM 192.00,32.00L 192.00,224.00 L 64.00,224.00 c0.00,70.56, 57.376,128.00, 128.00,128.00L 192.00,416.00 C 86.128,416.00,0.00,329.872,0.00,224.00l0.00-192.00 L 192.00,32.00 z"  />
<glyph unicode="&#x44;" d="M0.00,416.00l0.00-192.00 l 128.00,0.00 c0.00-70.56-57.376-128.00-128.00-128.00l0.00-64.00 c 105.872,0.00, 192.00,86.128, 192.00,192.00L 192.00,416.00 L0.00,416.00 zM 320.00,416.00l0.00-192.00 l 128.00,0.00 c0.00-70.56-57.376-128.00-128.00-128.00l0.00-64.00 c 105.872,0.00, 192.00,86.128, 192.00,192.00L 512.00,416.00 L 320.00,416.00 z"  />
<glyph unicode="&#x45;" d="M 384.00,160.00L 256.00,288.00L 128.00,160.00 z"  />
<glyph unicode="&#x46;" d="M 192.001,96.00L 320.001,224.00L 192.001,352.00 z"  />
<glyph unicode="&#x47;" d="M 128.00,288.00L 256.00,160.00L 384.00,288.00 z"  />
<glyph unicode="&#x48;" d="M 320.001,352.00L 192.001,224.00L 320.001,95.999 z"  />
<glyph unicode="&#x49;" d="M 512.00,224.00c0.00,141.376-114.624,256.00-256.00,256.00C 114.608,480.00,0.00,365.376,0.00,224.00c0.00-141.392, 114.608-256.00, 256.00-256.00C 397.376-32.00, 512.00,82.608, 512.00,224.00z
	 M 128.00,224.00l 128.00,128.00l0.00-96.00 l 128.00,0.00 l0.00-64.00 l-128.00,0.00 l0.00-96.00 L 128.00,224.00z"  />
<glyph unicode="&#x4a;" d="M0.00,224.00c0.00-141.376, 114.624-256.00, 256.00-256.00c 141.392,0.00, 256.00,114.624, 256.00,256.00c0.00,141.392-114.608,256.00-256.00,256.00C 114.624,480.00,0.00,365.392,0.00,224.00z M 384.00,224.00
	l-128.00-128.00l0.00,96.00 L 128.00,192.00 l0.00,64.00 l 128.00,0.00 L 256.00,352.00 L 384.00,224.00z"  />
<glyph unicode="&#x4b;" d="M 256.00-32.00c 141.376,0.00, 256.00,114.624, 256.00,256.00c0.00,141.392-114.624,256.00-256.00,256.00C 114.608,480.00,0.00,365.392,0.00,224.00C0.00,82.624, 114.608-32.00, 256.00-32.00z M 256.00,352.00
	l 128.00-128.00l-96.00,0.00 l0.00-128.00 l-64.00,0.00 l0.00,128.00 L 128.00,224.00 L 256.00,352.00z"  />
<glyph unicode="&#x4c;" d="M 256.00,480.00C 114.624,480.00,0.00,365.376,0.00,224.00c0.00-141.392, 114.624-256.00, 256.00-256.00c 141.392,0.00, 256.00,114.608, 256.00,256.00C 512.00,365.376, 397.392,480.00, 256.00,480.00z M 256.00,96.00
	l-128.00,128.00l 96.00,0.00 L 224.00,352.00 l 64.00,0.00 l0.00-128.00 l 96.00,0.00 L 256.00,96.00z"  />
<glyph unicode="&#x4d;" d="M 512.00,288.00L 256.00,288.00L 352.00,384.00L 256.00,480.00L0.00,224.00L 256.00-32.00L 352.00,64.00L 256.00,160.00L 512.00,160.00 z"  />
<glyph unicode="&#x4e;" d="M0.00,160.00L 256.00,160.00L 160.00,64.00L 256.00-32.00L 512.00,224.00L 256.00,480.00L 160.00,384.00L 256.00,288.00L0.00,288.00 z"  />
<glyph unicode="&#x4f;" d="M 320.00-32.00L 320.00,224.00L 416.00,128.00L 512.00,224.00L 256.00,480.00L0.00,224.00L 96.00,128.00L 192.00,224.00L 192.00-32.00 z"  />
<glyph unicode="&#x50;" d="M 192.00,480.00L 192.00,224.00L 96.00,320.00L0.00,224.00L 256.00-32.00L 512.00,224.00L 416.00,320.00L 320.00,224.00L 320.00,480.00 z"  />
<glyph unicode="&#x51;" d="M 256.00,32.496c-10.384,0.00-25.584,11.68-35.664,12.752c-28.752-24.112-58.704-53.136-99.424-68.224
	c-17.776-7.536-33.04-11.904-37.008-7.152c-5.328,6.192-13.376,14.784-14.80,17.088c 0.08,3.424, 4.224,0.72, 8.736,5.584
	c 24.576,10.336, 40.448,37.008, 51.12,69.616C 51.984,100.736,0.00,173.104,0.00,256.208C0.00,379.744, 114.624,479.904, 256.00,479.904s 256.00-100.144, 256.00-223.696
	S 397.376,32.496, 256.00,32.496z"  />
<glyph unicode="&#x52;" d="M 224.00,480.00C 100.32,480.00,0.00,379.68,0.00,256.00c0.00-61.312, 24.752-116.752, 64.688-157.248L 65.056-32.00l 106.192,70.944
	C 188.256,34.752, 205.744,32.00, 224.00,32.00c 123.68,0.00, 224.00,100.32, 224.00,224.00C 448.00,379.68, 347.68,480.00, 224.00,480.00z M 224.00,96.00c-11.312,0.00-23.568,1.68-37.44,5.056l-27.248,6.752
	l-30.688-20.32l 0.192,37.376l-18.56,18.816C 80.432,173.936, 64.00,213.808, 64.00,256.00C 64.00,344.256, 135.744,416.00, 224.00,416.00c 88.256,0.00, 160.00-71.744, 160.00-160.00
	C 384.00,167.744, 312.256,96.00, 224.00,96.00z" horiz-adv-x="448"  />
<glyph unicode="&#x53;" d="M 224.00,480.00C 100.32,480.00,0.00,379.68,0.00,256.00c0.00-61.312, 24.752-116.752, 64.688-157.248L 64.00-32.00l 107.248,70.944
			C 188.256,34.752, 205.744,32.00, 224.00,32.00c 123.68,0.00, 224.00,100.32, 224.00,224.00S 347.68,480.00, 224.00,480.00z" horiz-adv-x="448"  />
<glyph unicode="&#x54;" d="M 160.00,416.00c 25.632,0.00, 49.744-10.00, 67.872-28.16C 246.00,369.744, 256.00,345.632, 256.00,320.00s-10.00-49.744-27.68-67.408
			c-2.688-2.656-35.808-35.60-68.32-87.056c-32.368,51.376-65.376,84.192-67.872,86.624C 74.00,270.256, 64.00,294.368, 64.00,320.00s 10.00,49.744, 28.128,67.872
			S 134.368,416.00, 160.00,416.00 M 160.00,480.00C 119.056,480.00, 78.128,464.368, 46.88,433.12c-62.496-62.464-62.496-163.776,0.00-226.256C 46.88,206.88, 160.00,96.00, 160.00-32.00
			c0.00,128.00, 113.12,238.88, 113.12,238.88c 62.496,62.464, 62.496,163.776,0.00,226.256C 241.872,464.368, 200.944,480.00, 160.00,480.00L 160.00,480.00zM 128.00,320.00A32.00,32.00 1620.00 1 1 192.00,320A32.00,32.00 1620.00 1 1 128.00,320z" horiz-adv-x="320"  />
<glyph unicode="&#x55;" d="M 273.12,433.12c-62.496,62.496-163.744,62.496-226.256,0.00c-62.496-62.464-62.496-163.808,0.00-226.24
				C 46.88,206.88, 160.00,96.00, 160.00-32.00c0.00,128.00, 113.12,238.88, 113.12,238.88C 335.632,269.312, 335.632,370.656, 273.12,433.12z M 160.00,256.00c-35.376,0.00-64.00,28.624-64.00,64.00
				s 28.624,64.00, 64.00,64.00s 64.00-28.624, 64.00-64.00S 195.376,256.00, 160.00,256.00z" horiz-adv-x="320"  />
<glyph unicode="&#x56;" d="M 180.928,345.536L 189.888,345.536L 189.888,289.648L 180.928,289.648zM 134.448,328.96l0.00-39.312 l 8.992,0.00 L 143.44,343.984 C 138.176,341.328, 134.448,335.60, 134.448,328.96zM 333.216,291.712l 24.816,0.00 c 9.28,0.00, 16.864,7.60, 16.864,16.864L 374.896,326.592 c0.00,9.264-7.584,16.848-16.864,16.848l-24.816,0.00 
		c-9.28,0.00-16.864-7.584-16.864-16.848l0.00-18.00 C 316.352,299.328, 323.936,291.712, 333.216,291.712zM 149.952,345.536L 158.912,345.536L 158.912,289.648L 149.952,289.648zM 165.424,345.536L 174.416,345.536L 174.416,289.648L 165.424,289.648zM 256.016,480.00C 114.608,480.00,0.00,365.36,0.00,224.00s 114.608-256.00, 256.016-256.00C 397.392-32.00, 512.00,82.624, 512.00,224.00S 397.392,480.00, 256.016,480.00z M 121.28,334.896
		c0.00,13.056, 10.688,23.808, 23.808,23.808l 221.824,0.00 c 13.072,0.00, 23.76-10.736, 23.76-23.808l0.00-55.616 l-83.408,0.00 c-11.744,15.472-30.336,25.504-51.312,25.504
		c-20.96,0.00-39.52-10.00-51.296-25.504L 121.264,279.28 L 121.28,334.896L 121.28,334.896z M 312.432,240.512c0.00-31.136-25.344-56.48-56.464-56.48
		s-56.416,25.344-56.416,56.48c0.00,31.072, 25.296,56.40, 56.416,56.40S 312.432,271.584, 312.432,240.512z M 390.688,113.056
		c0.00-13.056-10.688-23.776-23.744-23.776L 145.056,89.28 c-13.072,0.00-23.776,10.72-23.776,23.776l0.00,156.656 l 77.424,0.00 c-4.464-8.768-7.008-18.704-7.008-29.232
		c0.00-35.52, 28.80-64.304, 64.288-64.304c 35.504,0.00, 64.304,28.784, 64.304,64.304c0.00,10.512-2.544,20.40-7.04,29.232l 77.456,0.00 L 390.704,113.056 L 390.688,113.056zM 209.936,240.48A46.08,46.08 180.00 1 1 302.096,240.48A46.08,46.08 180.00 1 1 209.936,240.48zM 275.20,263.568l0.00,0.576 c-0.144-0.176-0.336-0.40-0.416-0.576L 275.20,263.568 z"  />
<glyph unicode="&#x58;" d="M 256.064,189.312c 30.224,0.00, 54.72,24.496, 54.72,54.768c0.00,30.24-24.496,54.72-54.72,54.72s-54.736-24.512-54.752-54.736
		C 201.328,213.776, 225.808,189.312, 256.064,189.312zM 111.68,349.168l0.00-46.688 l 10.656,0.00 l 0.016,64.544C 116.096,363.84, 111.68,357.04, 111.68,349.168zM 428.00,480.00L 84.00,480.00 C 37.68,480.00, 0.032,442.288, 0.032,395.984L 0.032,52.00 c0.00-46.336, 37.664-84.00, 83.968-84.00l 344.00,0.00 c 46.32,0.00, 83.968,37.664, 83.968,84.00
		L 511.968,395.984 C 511.968,442.272, 474.32,480.00, 428.00,480.00z M 416.00,92.72c0.00-15.536-12.688-28.288-28.224-28.288L 124.272,64.432 c-15.552,0.00-28.24,12.752-28.24,28.288L 96.032,278.816 
		l 91.968,0.00 c-5.312-10.432-8.336-22.256-8.336-34.704c0.00-5.28, 0.528-10.416, 1.552-15.408c 7.12-34.832, 37.936-60.992, 74.816-60.992
		s 67.68,26.16, 74.816,60.992c 0.992,4.992, 1.536,10.128, 1.536,15.408c0.00,12.448-3.008,24.24-8.336,34.688L 416.00,278.80 L 416.00,92.72 z M 188.992,244.096
		c0.00,36.912, 30.048,67.008, 67.008,67.008c 36.976,0.00, 67.056-30.096, 67.056-67.008c0.00-36.992-30.096-67.056-67.056-67.056
		C 219.04,177.024, 188.992,207.088, 188.992,244.096z M 416.00,290.16l-99.056,0.00 c-13.936,18.40-36.032,30.32-60.944,30.32
		c-24.896,0.00-46.928-11.904-60.944-30.336L 96.00,290.144 L 96.00,356.208 l 0.032,0.00 c0.00,15.52, 12.688,28.272, 28.304,28.272l 263.456,0.00 C 403.344,384.48, 416.00,371.728, 416.00,356.24L 416.00,290.16 zM 377.216,366.384l-29.504,0.00 c-11.008,0.00-20.00-9.008-20.00-20.016l0.00-21.376 c0.00-11.024, 8.992-20.048, 20.00-20.048l 29.504,0.00 
		c 11.024,0.00, 20.064,9.024, 20.064,20.032L 397.28,346.368 C 397.28,357.376, 388.256,366.384, 377.216,366.384zM 130.064,368.848L 140.72,368.848L 140.72,302.48L 130.064,302.48zM 166.88,368.848L 177.504,368.848L 177.504,302.48L 166.88,302.48zM 148.448,368.848L 159.136,368.848L 159.136,302.48L 148.448,302.48z"  />
<glyph unicode="&#x57;" d="M 440.512,448.016L 71.648,448.016 c-21.84,0.00-39.60-17.856-39.60-39.568L 32.00,408.448 l0.00-92.496 l 138.688,0.00 C 190.304,341.728, 221.152,358.384, 256.00,358.384
	c 34.864,0.00, 65.776-16.672, 85.312-42.432L 480.00,315.952 L 480.00,408.464 C 480.00,430.16, 462.24,448.016, 440.512,448.016z M 68.88,333.20L 53.952,333.20 L 53.952,398.576 
	c0.00,11.024, 6.176,20.544, 14.944,24.976L 68.896,333.20 z M 94.608,333.216L 79.696,333.216 L 79.696,426.128 l 14.896,0.00 L 94.592,333.216 z M 120.40,333.216L 105.424,333.216 L 105.424,426.128 l 14.976,0.00 L 120.40,333.216 z M 146.08,333.216
	L 131.20,333.216 L 131.20,426.128 l 14.88,0.00 L 146.08,333.216 z M 453.776,364.688c0.00-15.424-12.624-28.048-28.08-28.048l-41.248,0.00 c-15.456,0.00-28.00,12.624-28.00,28.064L 356.448,394.64 
	c0.00,15.408, 12.544,28.016, 28.00,28.016l 41.248,0.00 c 15.456,0.00, 28.08-12.608, 28.08-28.016L 453.776,364.688 zM 256.00,157.552c 51.744,0.00, 93.888,42.144, 93.888,93.92c0.00,51.68-42.144,93.792-93.888,93.792
	c-51.76,0.00-93.808-42.112-93.808-93.792C 162.176,199.68, 204.256,157.552, 256.00,157.552z M 256.08,328.064c 42.304,0.00, 76.608-34.304, 76.608-76.608
	c0.00-42.368-34.304-76.672-76.608-76.672c-42.352,0.00-76.656,34.304-76.656,76.672C 179.424,293.76, 213.728,328.064, 256.08,328.064zM 362.928,251.472c0.00-59.104-47.84-106.96-106.896-106.96c-59.008,0.00-106.896,47.84-106.896,106.96
	c0.00,17.456, 4.208,33.984, 11.648,48.592L 32.032,300.064 l0.00-260.528 c0.00-21.712, 17.776-39.568, 39.536-39.568l 368.944,0.00 c 21.712,0.00, 39.488,17.824, 39.488,39.568L 480.00,300.048 
	l-128.752,0.00 C 358.72,285.392, 362.928,268.928, 362.928,251.472z"  />
<glyph unicode="&#x59;" d="M 32.00,384.00L 480.00,384.00L 480.00,288.00L 32.00,288.00zM 32.00,256.00L 480.00,256.00L 480.00,160.00L 32.00,160.00zM 32.00,128.00L 480.00,128.00L 480.00,32.00L 32.00,32.00z"  />
<glyph unicode="&#x20;" horiz-adv-x="256" />
<glyph class="hidden" unicode="&#xf000;" d="M0,480L 512 -32L0 -32 z" horiz-adv-x="0" />
</font></defs></svg>